<?xml version="1.0" encoding="UTF-8"?>
<svg width="841.89" height="595.28" version="1.1" viewBox="0 0 841.89 595.28" xmlns="http://www.w3.org/2000/svg" xmlns:cc="http://creativecommons.org/ns#" xmlns:dc="http://purl.org/dc/elements/1.1/" xmlns:rdf="http://www.w3.org/1999/02/22-rdf-syntax-ns#">
 <metadata>
  <rdf:RDF>
   <cc:Work rdf:about="">
    <dc:format>image/svg+xml</dc:format>
    <dc:type rdf:resource="http://purl.org/dc/dcmitype/StillImage"/>
    <dc:title/>
   </cc:Work>
  </rdf:RDF>
 </metadata>
 <g transform="translate(-104.74 72.446)" fill-rule="evenodd">
  <g fill="#0066a6">
   <path d="m267.44 162.5-48.086 112.5-2.4469-5.4848 1.9165-1.883 0.0451-5.076-3.5223 3.4602-4.3558-9.7628 8.004-7.8627 0.045-5.0763-9.6097 9.4405-4.3554-9.7628 14.091-13.843 0.0451-5.0766-15.697 15.421-4.3557-9.7628 20.164-19.809-0.1508-1e-3z"/>
   <path d="m236.34 96.537h8.4606l-25.658 25.658v-8.4606zm32.07 0h8.4605l-57.729 57.729v-8.4606zm32.07 0h8.461l-89.799 89.799v-8.461zm32.048 0.0232v8.4602l-104.9 104.9h-8.4602zm0 32.07v8.4601l-72.833 72.833h-8.4601zm0 32.07v8.4614l-40.761 40.761h-8.4614zm0 32.071v8.4605l-8.6911 8.6911h-8.4605z"/>
   <path d="m351.57 96.763h2.6498l6.5177 12.234 5.6653-12.234h2.594l-7.4534 15.481c-0.9312 1.9364-1.6954 3.2054-2.293 3.8033-0.5975 0.5975-1.4499 0.894-2.5616 0.894-0.6764 0-1.5055-0.1576-2.4923-0.4725v-2.2513c0.7042 0.4076 1.45 0.6114 2.2374 0.6114 0.6392 0 1.1906-0.2086 1.6586-0.6207 0.4632-0.4125 0.9774-1.3527 1.5378-2.8211zm18.117 5.4757h11.396v14.425h-2.4457v-12.396h-6.5038v12.396h-2.4461zm15.051 19.956v-19.956h2.2235v1.8944c0.5235-0.7319 1.1165-1.283 1.779-1.6489 0.6576-0.366 1.459-0.5514 2.3995-0.5514 1.2323 0 2.3162 0.315 3.2565 0.9496 0.9402 0.6302 1.6492 1.5242 2.1308 2.6728 0.4773 1.1535 0.718 2.4135 0.718 3.7894 0 1.4683-0.2639 2.7932-0.792 3.9744-0.5281 1.1767-1.2971 2.0801-2.3068 2.71-1.0055 0.6253-2.0662 0.9405-3.178 0.9405-0.8152 0-1.5471-0.1715-2.1911-0.5142-0.6483-0.343-1.1764-0.7736-1.5934-1.2971v7.0364zm2.2235-12.656c0 1.8485 0.3753 3.2148 1.1211 4.0998 0.7506 0.8847 1.6585 1.3294 2.7238 1.3294 1.084 0 2.0106-0.4586 2.7794-1.3759 0.7735-0.917 1.1582-2.3346 1.1582-4.2571 0-1.8343-0.3753-3.2054-1.1305-4.1181-0.7548-0.9125-1.6537-1.3666-2.7005-1.3666-1.0378 0-1.9548 0.4864-2.7516 1.4547-0.8014 0.9729-1.1999 2.3811-1.1999 4.2338zm22.657 5.3181c-0.9079 0.7736-1.7835 1.3156-2.622 1.635-0.8385 0.3198-1.7371 0.4774-2.7006 0.4774-1.5843 0-2.8026-0.3847-3.655-1.1582-0.8524-0.7691-1.2784-1.7555-1.2784-2.9554 0-0.7042 0.1621-1.3479 0.4816-1.9318 0.3243-0.5837 0.7458-1.0469 1.2648-1.3989 0.5233-0.3521 1.1069-0.6208 1.7603-0.8014 0.4816-0.125 1.209-0.2455 2.177-0.366 1.9735-0.2315 3.4328-0.5142 4.3637-0.8384 9e-3 -0.3334 0.0139-0.5466 0.0139-0.6347 0-0.9913-0.2316-1.6906-0.6948-2.0982-0.6253-0.5514-1.5565-0.8246-2.7887-0.8246-1.1534 0-2.0058 0.2038-2.5523 0.6066-0.5514 0.4031-0.9545 1.1166-1.2184 2.145l-2.3901-0.3337c0.2177-1.0236 0.5743-1.853 1.0746-2.4828 0.5003-0.6302 1.2228-1.1118 2.1679-1.4545 0.9403-0.3382 2.0381-0.5097 3.2797-0.5097 1.2322 0 2.2374 0.1438 3.011 0.4354 0.769 0.292 1.3388 0.6531 1.7002 1.0934 0.3611 0.4399 0.616 0.9958 0.7642 1.6676 0.0788 0.417 0.1205 1.1673 0.1205 2.2467v3.2426c0 2.2651 0.051 3.6966 0.1528 4.3033 0.0972 0.6069 0.301 1.186 0.5975 1.7418h-2.5568c-0.2458-0.5142-0.4031-1.1162-0.4726-1.8065zm-0.1947-5.4198c-0.8892 0.3611-2.2235 0.667-4.0023 0.917-1.0099 0.1437-1.7231 0.3058-2.1401 0.4864-0.417 0.1809-0.7365 0.4448-0.9635 0.7875-0.2271 0.3475-0.3427 0.7319-0.3427 1.1582 0 0.6438 0.2455 1.1857 0.741 1.6166 0.4957 0.4309 1.2183 0.6486 2.1679 0.6486 0.9405 0 1.779-0.2038 2.5155-0.616 0.7319-0.4079 1.2739-0.9683 1.6166-1.677 0.2641-0.5513 0.3937-1.362 0.3937-2.4321zm6.2305-7.1986h5.6285c1.3805 0 2.4086 0.1157 3.0849 0.3472 0.6719 0.2316 1.251 0.6531 1.7326 1.2694 0.4864 0.6208 0.7274 1.3572 0.7274 2.219 0 0.6902-0.1438 1.2923-0.4264 1.8019-0.2871 0.514-0.7132 0.9448-1.2878 1.2878 0.6764 0.2268 1.2371 0.6483 1.6864 1.2691 0.4447 0.6162 0.667 1.3527 0.667 2.2005-0.0879 1.3663-0.5792 2.3808-1.4638 3.0388-0.8847 0.6624-2.1725 0.9912-3.8588 0.9912h-6.49zm2.446 6.0868h2.594c1.0333 0 1.7465-0.0555 2.1311-0.1621 0.3889-0.1111 0.7365-0.3291 1.042-0.6625 0.3059-0.3288 0.4587-0.7273 0.4587-1.1905 0-0.7642-0.2687-1.2923-0.8014-1.5937-0.5374-0.301-1.4544-0.4492-2.7516-0.4492h-2.6728zm0 6.3369h3.2103c1.3805 0 2.3301-0.1622 2.8443-0.4816 0.5142-0.3243 0.7826-0.8756 0.8104-1.6676 0-0.4587-0.148-0.8896-0.4445-1.2833-0.3013-0.3937-0.6902-0.6437-1.1676-0.7458-0.477-0.1066-1.2458-0.1576-2.302-0.1576h-2.9509zm12.878-12.424h11.368v14.411h-2.4457v-12.382h-6.476v7.1756c0 1.6721-0.0556 2.7748-0.1622 3.312-0.1111 0.5326-0.4076 0.9961-0.894 1.3943-0.491 0.3983-1.1951 0.5976-2.1169 0.5976-0.5698 0-1.2277-0.0372-1.9687-0.1066v-2.0336h1.0701c0.5048 0 0.866-0.051 1.0839-0.1573 0.2177-0.102 0.3612-0.2687 0.4354-0.4958 0.0695-0.227 0.1066-0.9635 0.1066-2.2096zm24.862 9.7554 2.5293 0.3337c-0.3937 1.4683-1.1301 2.6127-2.205 3.4234-1.0747 0.8104-2.4458 1.2183-4.1182 1.2183-2.103 0-3.7707-0.6486-5.0029-1.9457-1.2322-1.2923-1.8482-3.113-1.8482-5.4522 0-2.4182 0.6208-4.299 1.8669-5.633 1.2461-1.3388 2.8627-2.0058 4.8501-2.0058 1.9222 0 3.4926 0.6531 4.7109 1.9642 1.2183 1.311 1.8298 3.1546 1.8298 5.5309 0 0.1437-5e-3 0.3614-0.0139 0.6486h-10.742c0.0927 1.5795 0.5375 2.7933 1.3436 3.6317 0.8014 0.8385 1.8066 1.26 3.0062 1.26 0.894 0 1.6585-0.2364 2.2884-0.7086 0.6347-0.4726 1.135-1.2277 1.5055-2.2655zm-8.0045-3.9189h8.0322c-0.1062-1.2135-0.4166-2.1214-0.9218-2.7283-0.7736-0.9403-1.7833-1.4128-3.02-1.4128-1.1211 0-2.0616 0.375-2.8259 1.1256-0.7597 0.7504-1.1812 1.7555-1.2645 3.0155zm13.624-5.8365h2.446v6.0035h6.7816v-6.0035h2.446v14.425h-2.446v-6.3926h-6.7816v6.3926h-2.446zm15.347 0h2.446v11.002l6.7955-11.002h2.6266v14.425h-2.4458v-10.932l-6.7864 10.932h-2.6359zm25.367 9.7554 2.5294 0.3337c-0.3937 1.4683-1.1302 2.6127-2.2051 3.4234-1.0746 0.8104-2.4457 1.2183-4.1182 1.2183-2.103 0-3.7706-0.6486-5.0028-1.9457-1.2322-1.2923-1.8482-3.113-1.8482-5.4522 0-2.4182 0.6208-4.299 1.8669-5.633 1.2461-1.3388 2.8627-2.0058 4.8501-2.0058 1.9221 0 3.4925 0.6531 4.7109 1.9642 1.2183 1.311 1.8297 3.1546 1.8297 5.5309 0 0.1437-5e-3 0.3614-0.0139 0.6486h-10.742c0.0927 1.5795 0.5374 2.7933 1.3436 3.6317 0.8014 0.8385 1.8065 1.26 3.0061 1.26 0.8941 0 1.6586-0.2364 2.2885-0.7086 0.6346-0.4726 1.1349-1.2277 1.5054-2.2655zm-8.0044-3.9189h8.0322c-0.1063-1.2135-0.4167-2.1214-0.9218-2.7283-0.7736-0.9403-1.7833-1.4128-3.02-1.4128-1.1211 0-2.0617 0.375-2.8259 1.1256-0.7597 0.7504-1.1812 1.7555-1.2645 3.0155zm21.346-5.8365h11.396v14.425h-2.4458v-12.396h-6.5038v12.396h-2.446zm14.134 7.2125c0-2.6637 0.741-4.6369 2.2281-5.9202 1.2367-1.0655 2.7516-1.5982 4.5351-1.5982 1.978 0 3.5992 0.6486 4.8592 1.9457 1.2554 1.2924 1.8853 3.085 1.8853 5.3689 0 1.8527-0.2778 3.3074-0.8337 4.3681-0.5558 1.0608-1.3666 1.8854-2.4321 2.4738-1.0607 0.5882-2.2235 0.8802-3.4787 0.8802-2.0197 0-3.6504-0.644-4.8965-1.9363-1.2462-1.2926-1.8667-3.1547-1.8667-5.582zm2.5013 4e-3c0 1.8437 0.4031 3.2241 1.209 4.1366 0.8107 0.9173 1.8252 1.3759 3.0529 1.3759 1.2135 0 2.2235-0.4586 3.0342-1.3804 0.8059-0.9219 1.209-2.3256 1.209-4.2109 0-1.7787-0.4076-3.1266-1.2183-4.0394-0.8107-0.917-1.8204-1.3756-3.0249-1.3756-1.2277 0-2.2422 0.4538-3.0529 1.3666-0.8059 0.9124-1.209 2.2881-1.209 4.1272zm-178.79 23.833h3.7613l3.8123 11.544 4.2202-11.544h3.4929v14.425h-2.4461v-11.613l-4.2477 11.613h-2.1866l-4.0161-12.169v12.169h-2.3902zm18.108 7.2125c0-2.6637 0.741-4.6369 2.228-5.9202 1.2368-1.0655 2.7516-1.5981 4.5352-1.5981 1.978 0 3.5991 0.6485 4.8591 1.9457 1.2555 1.2923 1.8853 3.0849 1.8853 5.3688 0 1.8527-0.2777 3.3075-0.8336 4.3682s-1.3666 1.8853-2.4321 2.4738c-1.0608 0.5882-2.2235 0.8801-3.4787 0.8801-2.0197 0-3.6505-0.644-4.8966-1.9363-1.2461-1.2926-1.8666-3.1547-1.8666-5.582zm2.5013 4e-3c0 1.8437 0.4031 3.2242 1.209 4.1366 0.8107 0.9173 1.8252 1.376 3.0529 1.376 1.2135 0 2.2235-0.4587 3.0342-1.3805 0.8059-0.9218 1.209-2.3255 1.209-4.2109 0-1.7787-0.4077-3.1266-1.2184-4.0393-0.8107-0.917-1.8204-1.3757-3.0248-1.3757-1.2277 0-2.2422 0.4538-3.0529 1.3666-0.8059 0.9125-1.209 2.2881-1.209 4.1272zm14.458-7.217h11.368v14.411h-2.4457v-12.382h-6.4761v7.1756c0 1.6722-0.0555 2.7748-0.1621 3.312-0.1111 0.5326-0.4076 0.9961-0.894 1.3944-0.491 0.3982-1.1951 0.5975-2.117 0.5975-0.5697 0-1.2276-0.0371-1.9686-0.1066v-2.0335h1.0701c0.5048 0 0.8659-0.0511 1.0839-0.1574 0.2177-0.102 0.3612-0.2687 0.4354-0.4958 0.0695-0.227 0.1066-0.9634 0.1066-2.2096zm14.416 7.2125c0-2.6637 0.741-4.6369 2.228-5.9202 1.2368-1.0655 2.7516-1.5981 4.5352-1.5981 1.978 0 3.5991 0.6485 4.8591 1.9457 1.2555 1.2923 1.8853 3.0849 1.8853 5.3688 0 1.8527-0.2778 3.3075-0.8336 4.3682-0.5559 1.0607-1.3666 1.8853-2.4322 2.4738-1.0607 0.5882-2.2235 0.8801-3.4786 0.8801-2.0197 0-3.6505-0.644-4.8966-1.9363-1.2461-1.2926-1.8666-3.1547-1.8666-5.582zm2.5013 4e-3c0 1.8437 0.4031 3.2242 1.209 4.1366 0.8107 0.9173 1.8252 1.376 3.0529 1.376 1.2135 0 2.2235-0.4587 3.0342-1.3805 0.8059-0.9218 1.2089-2.3255 1.2089-4.2109 0-1.7787-0.4076-3.1266-1.2183-4.0393-0.8107-0.917-1.8204-1.3757-3.0248-1.3757-1.2277 0-2.2422 0.4538-3.0529 1.3666-0.8059 0.9125-1.209 2.2881-1.209 4.1272zm15.18-7.217h10.061v12.424h1.5566v6.0868h-2.001v-4.0855h-11.368v4.0855h-2.0013v-6.0868h1.2785c1.7234-2.3391 2.5477-6.4806 2.4738-12.424zm2.029 2.0288c-0.1809 4.6834-0.9034 8.1485-2.1679 10.395h7.7544v-10.395zm22.11 7.7267 2.5294 0.3336c-0.3937 1.4683-1.1302 2.6127-2.2051 3.4234-1.0746 0.8104-2.4457 1.2183-4.1181 1.2183-2.1031 0-3.7707-0.6485-5.0029-1.9457-1.2322-1.2923-1.8482-3.113-1.8482-5.4521 0-2.4183 0.6208-4.2991 1.8669-5.633 1.2461-1.3388 2.8627-2.0058 4.8501-2.0058 1.9222 0 3.4925 0.6531 4.7109 1.9641 1.2183 1.311 1.8297 3.1547 1.8297 5.531 0 0.1437-5e-3 0.3614-0.0138 0.6485h-10.742c0.0927 1.5795 0.5374 2.7933 1.3436 3.6318 0.8014 0.8385 1.8065 1.26 3.0062 1.26 0.894 0 1.6585-0.2364 2.2884-0.7087 0.6346-0.4725 1.135-1.2277 1.5054-2.2654zm-8.0044-3.9189h8.0322c-0.1063-1.2136-0.4167-2.1215-0.9218-2.7284-0.7736-0.9402-1.7833-1.4128-3.02-1.4128-1.1211 0-2.0617 0.375-2.8259 1.1257-0.7597 0.7503-1.1812 1.7555-1.2645 3.0155zm22.04-5.8366v6.2258c0.7874 0 1.3436-0.1483 1.6631-0.4403 0.3197-0.2962 0.7784-1.1625 1.3711-2.6078 0.5559-1.3712 1.061-2.242 1.5148-2.6218 0.4448-0.3708 1.1489-0.5559 2.1169-0.5559h0.8941v2.0149l-0.6625-0.0139c-0.6531 0-1.0652 0.0972-1.2461 0.2872-0.1899 0.1992-0.4816 0.7922-0.8708 1.779-0.3614 0.9448-0.6948 1.5933-1.0006 1.9593-0.3056 0.3614-0.7875 0.6902-1.4361 0.9913 1.0562 0.2826 2.0846 1.26 3.0898 2.9369l2.6822 4.4703h-2.6867l-2.6127-4.4657c-0.5326-0.908-1.0006-1.5007-1.3944-1.7833-0.3982-0.2826-0.8708-0.4215-1.4221-0.4215v6.6705h-2.5013v-6.6705c-0.542 0-1.01 0.1389-1.4037 0.417-0.3983 0.2778-0.8615 0.8753-1.3896 1.7926l-2.6359 4.4609h-2.6867l2.6728-4.4703c1.0145-1.6769 2.0523-2.6543 3.1085-2.9369-0.7229-0.3334-1.2322-0.6994-1.5197-1.0931-0.2917-0.3937-0.7225-1.3343-1.3016-2.821-0.199-0.5003-0.4122-0.8062-0.6393-0.9173-0.2361-0.116-0.5836-0.1715-1.0468-0.1715-0.1159 0-0.3566 5e-3 -0.718 0.0139v-2.0288h0.3382c0.945 0 1.6072 0.0556 1.9919 0.1712 0.3843 0.1112 0.7273 0.3521 1.0329 0.7181 0.3011 0.3659 0.6948 1.1256 1.1767 2.2884 0.5882 1.4221 1.0423 2.2838 1.3572 2.5894 0.3149 0.3059 0.8708 0.4587 1.6631 0.4587v-6.2258zm9.8668 0h2.446v6.0035h6.7816v-6.0035h2.4461v14.425h-2.4461v-6.3927h-6.7816v6.3927h-2.446zm14.43 7.2125c0-2.6637 0.741-4.6369 2.228-5.9202 1.2368-1.0655 2.7516-1.5981 4.5352-1.5981 1.978 0 3.5991 0.6485 4.8591 1.9457 1.2555 1.2923 1.8853 3.0849 1.8853 5.3688 0 1.8527-0.2778 3.3075-0.8336 4.3682-0.5559 1.0607-1.3666 1.8853-2.4322 2.4738-1.0607 0.5882-2.2235 0.8801-3.4786 0.8801-2.0197 0-3.6505-0.644-4.8966-1.9363-1.2461-1.2926-1.8666-3.1547-1.8666-5.582zm2.5013 4e-3c0 1.8437 0.4031 3.2242 1.2089 4.1366 0.8108 0.9173 1.8253 1.376 3.053 1.376 1.2135 0 2.2235-0.4587 3.0342-1.3805 0.8059-0.9218 1.2089-2.3255 1.2089-4.2109 0-1.7787-0.4076-3.1266-1.2183-4.0393-0.8107-0.917-1.8204-1.3757-3.0248-1.3757-1.2277 0-2.2422 0.4538-3.053 1.3666-0.8058 0.9125-1.2089 2.2881-1.2089 4.1272zm13.874-7.217h2.446v11.002l6.7955-11.002h2.6266v14.425h-2.4458v-10.932l-6.7864 10.932h-2.6359zm8.4495-5.3365h1.6676c-0.1344 1.1441-0.5513 2.0242-1.2461 2.6357-0.6948 0.6162-1.6166 0.9218-2.77 0.9218-1.1583 0-2.0846-0.3056-2.7749-0.9125-0.6902-0.6114-1.1072-1.4916-1.2415-2.645h1.6676c0.125 0.6253 0.3798 1.0931 0.7551 1.3989 0.3753 0.3104 0.8847 0.4632 1.5194 0.4632 0.7364 0 1.2923-0.1483 1.6676-0.4493 0.3753-0.2965 0.6302-0.769 0.7552-1.4128zm14.8 5.3365h11.396v14.425h-2.4458v-12.396h-6.5038v12.396h-2.446zm14.134 7.2125c0-2.6637 0.7409-4.6369 2.228-5.9202 1.2368-1.0655 2.7516-1.5981 4.5351-1.5981 1.9781 0 3.5992 0.6485 4.8592 1.9457 1.2555 1.2923 1.8853 3.0849 1.8853 5.3688 0 1.8527-0.2778 3.3075-0.8337 4.3682-0.5558 1.0607-1.3665 1.8853-2.4321 2.4738-1.0607 0.5882-2.2235 0.8801-3.4787 0.8801-2.0196 0-3.6504-0.644-4.8965-1.9363-1.2461-1.2926-1.8666-3.1547-1.8666-5.582zm2.5013 4e-3c0 1.8437 0.403 3.2242 1.2089 4.1366 0.8107 0.9173 1.8253 1.376 3.0529 1.376 1.2136 0 2.2235-0.4587 3.0343-1.3805 0.8058-0.9218 1.2089-2.3255 1.2089-4.2109 0-1.7787-0.4076-3.1266-1.2183-4.0393-0.8107-0.917-1.8204-1.3757-3.0249-1.3757-1.2276 0-2.2422 0.4538-3.0529 1.3666-0.8059 0.9125-1.2089 2.2881-1.2089 4.1272zm14.458-7.217h11.368v14.411h-2.4458v-12.382h-6.476v7.1756c0 1.6722-0.0555 2.7748-0.1621 3.312-0.1111 0.5326-0.4076 0.9961-0.8941 1.3944-0.4909 0.3982-1.1951 0.5975-2.1169 0.5975-0.5698 0-1.2277-0.0371-1.9686-0.1066v-2.0335h1.07c0.5049 0 0.866-0.0511 1.084-0.1574 0.2177-0.102 0.3611-0.2687 0.4354-0.4958 0.0694-0.227 0.1066-0.9634 0.1066-2.2096zm15.022 0h2.446v11.002l6.7955-11.002h2.6266v14.425h-2.4458v-10.932l-6.7864 10.932h-2.6359zm14.249 0h11.673v2.0288h-4.6136v12.396h-2.4461v-12.396h-4.6136zm14.008 0h2.4461v11.002l6.7954-11.002h2.6266v14.425h-2.4457v-10.932l-6.7864 10.932h-2.636zm15.5 0h2.446v6.2258c0.7781 0 1.3249-0.1483 1.6398-0.4493 0.3104-0.2965 0.7691-1.1628 1.3805-2.6034 0.4816-1.1395 0.8708-1.8901 1.1673-2.2512 0.3011-0.3615 0.6438-0.6069 1.033-0.732 0.3937-0.1252 1.019-0.1899 1.8759-0.1899h0.4913v2.0149l-0.6812-0.0139c-0.6437 0-1.0559 0.0972-1.2367 0.2872-0.19 0.1992-0.4817 0.7922-0.8708 1.779-0.3705 0.9448-0.7087 1.5981-1.0191 1.9593-0.3059 0.3614-0.7829 0.6902-1.427 0.9913 1.0517 0.2826 2.0895 1.26 3.1085 2.9369l2.6821 4.4703h-2.6869l-2.645-4.4564c-0.5326-0.9034-0.9958-1.4961-1.3896-1.7833-0.3985-0.2874-0.871-0.4308-1.4221-0.4308v6.6705h-2.446zm22.337 9.7555 2.5293 0.3336c-0.3937 1.4683-1.1301 2.6127-2.205 3.4234-1.0746 0.8104-2.4458 1.2183-4.1182 1.2183-2.103 0-3.7706-0.6485-5.0029-1.9457-1.2322-1.2923-1.8482-3.113-1.8482-5.4521 0-2.4183 0.6208-4.2991 1.8669-5.633 1.2462-1.3388 2.8627-2.0058 4.8501-2.0058 1.9222 0 3.4926 0.6531 4.7109 1.9641s1.8298 3.1547 1.8298 5.531c0 0.1437-5e-3 0.3614-0.0139 0.6485h-10.742c0.0927 1.5795 0.5375 2.7933 1.3437 3.6318 0.8013 0.8385 1.8065 1.26 3.0061 1.26 0.894 0 1.6585-0.2364 2.2884-0.7087 0.6347-0.4725 1.135-1.2277 1.5055-2.2654zm-8.0045-3.9189h8.0323c-0.1063-1.2136-0.4167-2.1215-0.9219-2.7284-0.7735-0.9402-1.7832-1.4128-3.02-1.4128-1.1211 0-2.0616 0.375-2.8258 1.1257-0.7597 0.7503-1.1812 1.7555-1.2646 3.0155zm-273.55 25.214h2.446v11.002l6.7955-11.002h2.6265v14.425h-2.4457v-10.932l-6.7864 10.932h-2.6359zm23.25 0h5.6285c1.3805 0 2.4086 0.1157 3.0849 0.3473 0.6718 0.2316 1.251 0.6531 1.7326 1.2693 0.4864 0.6208 0.7273 1.3573 0.7273 2.219 0 0.6902-0.1437 1.2923-0.4263 1.802-0.2871 0.5139-0.7132 0.9448-1.2878 1.2878 0.6764 0.2267 1.2371 0.6483 1.6864 1.269 0.4447 0.6163 0.667 1.3527 0.667 2.2006-0.0879 1.3663-0.5792 2.3808-1.4639 3.0387-0.8846 0.6625-2.1724 0.9913-3.8588 0.9913h-6.4899zm2.446 6.0869h2.594c1.0332 0 1.7464-0.0556 2.1311-0.1622 0.3889-0.1111 0.7364-0.3291 1.042-0.6624 0.3059-0.3288 0.4587-0.7274 0.4587-1.1906 0-0.7642-0.2688-1.2923-0.8014-1.5936-0.5374-0.301-1.4544-0.4493-2.7516-0.4493h-2.6728zm0 6.3368h3.2103c1.3804 0 2.33-0.1621 2.8443-0.4816 0.5142-0.3243 0.7826-0.8756 0.8104-1.6676 0-0.4586-0.148-0.8895-0.4445-1.2832-0.3013-0.3938-0.6902-0.6438-1.1676-0.7458-0.4771-0.1066-1.2458-0.1576-2.302-0.1576h-2.9509zm11.095-5.2112c0-2.6637 0.7409-4.6369 2.228-5.9201 1.2367-1.0656 2.7516-1.5982 4.5351-1.5982 1.9781 0 3.5992 0.6486 4.8592 1.9457 1.2554 1.2923 1.8853 3.0849 1.8853 5.3688 0 1.8527-0.2778 3.3075-0.8337 4.3682-0.5558 1.0607-1.3665 1.8853-2.4321 2.4738-1.0607 0.5882-2.2235 0.8802-3.4787 0.8802-2.0196 0-3.6504-0.6441-4.8965-1.9364-1.2461-1.2926-1.8666-3.1547-1.8666-5.582zm2.5012 5e-3c0 1.8436 0.4031 3.2241 1.209 4.1366 0.8107 0.9172 1.8253 1.3759 3.0529 1.3759 1.2135 0 2.2235-0.4587 3.0342-1.3805 0.8059-0.9218 1.209-2.3255 1.209-4.2108 0-1.7788-0.4076-3.1267-1.2183-4.0394-0.8107-0.917-1.8204-1.3757-3.0249-1.3757-1.2276 0-2.2422 0.4539-3.0529 1.3666-0.8059 0.9125-1.209 2.2881-1.209 4.1273zm23.296 1.9269 2.3902 0.3337c-0.2639 1.6444-0.9312 2.9276-2.0104 3.8588-1.0794 0.9309-2.4088 1.3944-3.9792 1.3944-1.9687 0-3.553-0.6441-4.7481-1.9319-1.1999-1.2877-1.7974-3.1314-1.7974-5.5309 0-1.5565 0.2594-2.9138 0.7736-4.0811 0.5142-1.1627 1.2971-2.0384 2.3533-2.6172 1.0514-0.5836 2.1957-0.8756 3.437-0.8756 1.5613 0 2.8443 0.3937 3.8355 1.1857 0.9961 0.7923 1.6354 1.9179 1.9134 3.3724l-2.3626 0.3614c-0.2268-0.968-0.6254-1.6954-1.2045-2.1863-0.5743-0.4865-1.2691-0.7319-2.0843-0.7319-1.2322 0-2.2328 0.4399-3.0064 1.32-0.7691 0.8847-1.1534 2.2746-1.1534 4.1831 0 1.9364 0.3704 3.3398 1.1117 4.2154 0.7458 0.8754 1.7138 1.3156 2.9044 1.3156 0.9635 0 1.7648-0.292 2.404-0.8802 0.6441-0.5836 1.0517-1.487 1.2232-2.7054zm4.4748-9.144h11.396v14.425h-2.4457v-12.396h-6.5038v12.396h-2.446zm15.05 0h2.446v11.002l6.7955-11.002h2.6266v14.425h-2.4457v-10.932l-6.7864 10.932h-2.636zm14.249 0h11.673v2.0288h-4.6137v12.396h-2.446v-12.396h-4.6137zm23.12 12.618c-0.908 0.7735-1.7836 1.3155-2.6221 1.635-0.8385 0.3197-1.7371 0.4774-2.7006 0.4774-1.5842 0-2.8026-0.3847-3.655-1.1583-0.8523-0.769-1.2784-1.7555-1.2784-2.9554 0-0.7041 0.1622-1.3479 0.4816-1.9318 0.3243-0.5836 0.7458-1.0468 1.2648-1.3989 0.5233-0.3521 1.107-0.6208 1.7604-0.8013 0.4816-0.1251 1.2089-0.2455 2.177-0.366 1.9735-0.2316 3.4327-0.5142 4.3636-0.8385 9e-3 -0.3333 0.0139-0.5465 0.0139-0.6347 0-0.9912-0.2316-1.6905-0.6948-2.0982-0.6253-0.5513-1.5565-0.8246-2.7887-0.8246-1.1534 0-2.0058 0.2038-2.5523 0.6066-0.5513 0.4031-0.9544 1.1166-1.2183 2.145l-2.3902-0.3336c0.2177-1.0236 0.5743-1.853 1.0746-2.4829 0.5003-0.6301 1.2229-1.1117 2.168-1.4544 0.9402-0.3382 2.0381-0.5097 3.2796-0.5097 1.2323 0 2.2374 0.1437 3.011 0.4354 0.769 0.292 1.3388 0.6531 1.7002 1.0933 0.3612 0.44 0.616 0.9958 0.7642 1.6676 0.0788 0.417 0.1205 1.1673 0.1205 2.2468v3.2425c0 2.2652 0.051 3.6967 0.1528 4.3033 0.0972 0.6069 0.301 1.186 0.5975 1.7419h-2.5568c-0.2458-0.5142-0.4031-1.1163-0.4725-1.8065zm-0.1948-5.4199c-0.8892 0.3612-2.2235 0.667-4.0022 0.917-1.01 0.1438-1.7232 0.3059-2.1402 0.4865-0.417 0.1808-0.7364 0.4447-0.9635 0.7874-0.227 0.3476-0.3427 0.7319-0.3427 1.1583 0 0.6437 0.2455 1.1857 0.741 1.6166 0.4958 0.4308 1.2183 0.6485 2.1679 0.6485 0.9406 0 1.7791-0.2038 2.5155-0.6159 0.7319-0.4079 1.2739-0.9684 1.6166-1.677 0.2642-0.5514 0.3937-1.3621 0.3937-2.4321zm4.3407-7.1986h11.673v2.0288h-4.6137v12.396h-2.446v-12.396h-4.6137zm23.537 9.7555 2.5294 0.3336c-0.3937 1.4684-1.1302 2.6127-2.2051 3.4234-1.0746 0.8104-2.4457 1.2184-4.1182 1.2184-2.103 0-3.7706-0.6486-5.0028-1.9457-1.2322-1.2924-1.8482-3.1131-1.8482-5.4522 0-2.4182 0.6208-4.299 1.8669-5.633 1.2461-1.3388 2.8627-2.0058 4.8501-2.0058 1.9221 0 3.4925 0.6531 4.7109 1.9641 1.2183 1.311 1.8297 3.1547 1.8297 5.531 0 0.1437-5e-3 0.3614-0.0139 0.6485h-10.742c0.0927 1.5795 0.5374 2.7933 1.3436 3.6318 0.8014 0.8385 1.8065 1.26 3.0061 1.26 0.8941 0 1.6586-0.2364 2.2885-0.7087 0.6346-0.4725 1.1349-1.2277 1.5054-2.2654zm-8.0044-3.9189h8.0322c-0.1063-1.2135-0.4167-2.1215-0.9218-2.7284-0.7736-0.9402-1.7833-1.4127-3.02-1.4127-1.1211 0-2.0617 0.375-2.8259 1.1256-0.7597 0.7503-1.1812 1.7555-1.2645 3.0155zm13.897-5.8366h11.368v14.411h-2.4457v-12.382h-6.4761v7.1756c0 1.6722-0.0555 2.7749-0.1621 3.312-0.1111 0.5327-0.4076 0.9961-0.8941 1.3944-0.4909 0.3983-1.195 0.5975-2.1169 0.5975-0.5697 0-1.2277-0.0371-1.9686-0.1065v-2.0336h1.07c0.5049 0 0.866-0.051 1.084-0.1573 0.2177-0.1021 0.3611-0.2688 0.4354-0.4958 0.0695-0.2271 0.1066-0.9635 0.1066-2.2096zm14.967 0h2.446v5.6421h3.0943c2.0197 0 3.5717 0.3892 4.6647 1.1719 1.0888 0.7829 1.6353 1.8623 1.6353 3.238 0 1.2044-0.4541 2.2328-1.3665 3.0898-0.908 0.8571-2.3624 1.2832-4.3637 1.2832h-6.1101zm2.446 12.424h2.5756c1.5517 0 2.6589-0.1899 3.3214-0.5697 0.6624-0.3799 0.9958-0.9729 0.9958-1.7788 0-0.6253-0.2455-1.1812-0.7365-1.6721-0.4909-0.4865-1.5749-0.7319-3.2564-0.7319h-2.8999zm12.09-12.424h2.446v6.0035h6.7816v-6.0035h2.446v14.425h-2.446v-6.3927h-6.7816v6.3927h-2.446zm14.43 7.2125c0-2.6637 0.741-4.6369 2.2281-5.9201 1.2367-1.0656 2.7516-1.5982 4.5351-1.5982 1.978 0 3.5992 0.6486 4.8592 1.9457 1.2554 1.2923 1.8853 3.0849 1.8853 5.3688 0 1.8527-0.2778 3.3075-0.8337 4.3682s-1.3666 1.8853-2.4321 2.4738c-1.0607 0.5882-2.2235 0.8802-3.4787 0.8802-2.0197 0-3.6504-0.6441-4.8965-1.9364-1.2462-1.2926-1.8667-3.1547-1.8667-5.582zm2.5013 5e-3c0 1.8436 0.4031 3.2241 1.209 4.1366 0.8107 0.9172 1.8252 1.3759 3.0529 1.3759 1.2135 0 2.2235-0.4587 3.0342-1.3805 0.8059-0.9218 1.209-2.3255 1.209-4.2108 0-1.7788-0.4076-3.1267-1.2183-4.0394-0.8107-0.917-1.8204-1.3757-3.0249-1.3757-1.2277 0-2.2422 0.4539-3.0529 1.3666-0.8059 0.9125-1.209 2.2881-1.209 4.1273zm13.874-7.2171h2.446v11.002l6.7955-11.002h2.6266v14.425h-2.4457v-10.932l-6.7864 10.932h-2.636zm8.4495-5.3365h1.6677c-0.1344 1.1441-0.5514 2.0243-1.2462 2.6357-0.6947 0.6163-1.6166 0.9218-2.77 0.9218-1.1582 0-2.0846-0.3055-2.7748-0.9124-0.6902-0.6115-1.1072-1.4916-1.2416-2.6451h1.6676c0.125 0.6254 0.3799 1.0931 0.7552 1.3989 0.3753 0.3104 0.8847 0.4632 1.5194 0.4632 0.7364 0 1.2923-0.1482 1.6676-0.4493 0.3753-0.2965 0.6301-0.769 0.7551-1.4128zm14.8 25.292v-19.956h2.2235v1.8944c0.5235-0.7319 1.1165-1.2829 1.779-1.6489 0.6576-0.3659 1.459-0.5513 2.3995-0.5513 1.2323 0 2.3162 0.3149 3.2565 0.9496 0.9402 0.6301 1.6492 1.5242 2.1308 2.6728 0.4773 1.1534 0.718 2.4134 0.718 3.7893 0 1.4684-0.2639 2.7933-0.792 3.9745-0.5281 1.1767-1.2971 2.0801-2.3068 2.7099-1.0055 0.6253-2.0662 0.9406-3.178 0.9406-0.8152 0-1.5471-0.1715-2.1911-0.5143-0.6483-0.3429-1.1764-0.7735-1.5934-1.2971v7.0365zm2.2235-12.656c0 1.8485 0.3753 3.2148 1.1211 4.0997 0.7506 0.8847 1.6585 1.3295 2.7238 1.3295 1.084 0 2.0106-0.4587 2.7794-1.3759 0.7735-0.9171 1.1582-2.3347 1.1582-4.2571 0-1.8343-0.3753-3.2054-1.1305-4.1182-0.7548-0.9125-1.6537-1.3666-2.7005-1.3666-1.0378 0-1.9548 0.4865-2.7516 1.4548-0.8014 0.9728-1.1999 2.3811-1.1999 4.2338z"/>
   <path d="m614.78 176.96c-0.9079 0.7735-1.7835 1.3155-2.622 1.635-0.8385 0.3197-1.7371 0.4774-2.7006 0.4774-1.5843 0-2.8026-0.3847-3.655-1.1583-0.8524-0.769-1.2784-1.7555-1.2784-2.9554 0-0.7041 0.1621-1.3479 0.4816-1.9318 0.3243-0.5836 0.7458-1.0468 1.2648-1.3989 0.5233-0.3521 1.1069-0.6208 1.7603-0.8013 0.4816-0.1251 1.209-0.2455 2.177-0.366 1.9735-0.2316 3.4328-0.5142 4.3637-0.8385 9e-3 -0.3333 0.0139-0.5465 0.0139-0.6347 0-0.9912-0.2316-1.6905-0.6948-2.0982-0.6253-0.5513-1.5565-0.8246-2.7887-0.8246-1.1534 0-2.0058 0.2038-2.5523 0.6066-0.5514 0.4031-0.9545 1.1166-1.2184 2.145l-2.3901-0.3336c0.2177-1.0236 0.5743-1.853 1.0746-2.4829 0.5003-0.6301 1.2228-1.1117 2.1679-1.4544 0.9403-0.3382 2.0381-0.5097 3.2797-0.5097 1.2322 0 2.2374 0.1437 3.011 0.4354 0.769 0.292 1.3388 0.6531 1.7002 1.0933 0.3611 0.44 0.6159 0.9958 0.7642 1.6676 0.0788 0.417 0.1205 1.1673 0.1205 2.2468v3.2425c0 2.2652 0.051 3.6967 0.1528 4.3033 0.0972 0.6069 0.301 1.186 0.5975 1.7419h-2.5568c-0.2458-0.5142-0.4031-1.1163-0.4726-1.8065zm-0.1947-5.4199c-0.8893 0.3612-2.2235 0.667-4.0023 0.917-1.0099 0.1438-1.7231 0.3059-2.1401 0.4865-0.417 0.1808-0.7365 0.4447-0.9635 0.7874-0.2271 0.3476-0.3427 0.7319-0.3427 1.1583 0 0.6437 0.2455 1.1857 0.741 1.6166 0.4957 0.4308 1.2183 0.6485 2.1679 0.6485 0.9405 0 1.779-0.2038 2.5155-0.6159 0.7319-0.4079 1.2738-0.9684 1.6166-1.677 0.2641-0.5514 0.3937-1.3621 0.3937-2.4321zm16.737-13.146 2.1679 0.0278c-0.0975 0.968-0.3152 1.6444-0.644 2.0242-0.3289 0.3799-0.7504 0.6208-1.2694 0.7319-0.5187 0.1066-1.5378 0.1622-3.0526 0.1622-2.0103 0-3.3815 0.1944-4.1134 0.5836-0.7273 0.3892-1.2554 1.01-1.5752 1.8624-0.3195 0.8569-0.4955 1.9547-0.5326 3.3026 0.6162-0.917 1.3343-1.6027 2.1586-2.0613 0.82-0.4587 1.7512-0.6855 2.7793-0.6855 1.8902 0 3.4558 0.6483 4.6973 1.9455 1.2368 1.2971 1.8576 3.0526 1.8576 5.2716 0 1.6815-0.3104 3.0619-0.9357 4.1366-0.6254 1.0749-1.3666 1.9085-2.2235 2.497-0.8524 0.5882-2.0197 0.8802-3.4929 0.8802-1.7138 0-3.0433-0.3892-3.9929-1.1722-0.9496-0.7829-1.6769-1.7835-2.1866-3.0016-0.5049-1.2183-0.7597-3.3446-0.7597-6.3694 0-3.8033 0.644-6.3649 1.927-7.6853 1.2832-1.3201 3.2612-1.978 5.9295-1.978 1.6631 0 2.6033-0.0278 2.8304-0.0834 0.2222-0.0555 0.3659-0.1851 0.4309-0.3889zm-0.0837 13.096c0-1.4961-0.3566-2.7238-1.0652-3.6828-0.7087-0.9589-1.7093-1.436-3.0019-1.436-1.3479 0-2.3856 0.5051-3.1176 1.5194-0.7319 1.01-1.0978 2.3578-1.0978 4.0487 0 1.6676 0.4031 2.9463 1.2138 3.831 0.8059 0.8847 1.8065 1.3295 2.9877 1.3295 1.2138 0 2.1957-0.5142 2.9509-1.5381 0.7551-1.0236 1.1301-2.3808 1.1301-4.0717zm4.5817 0.0649c0-2.6637 0.741-4.6369 2.228-5.9201 1.2368-1.0656 2.7516-1.5982 4.5352-1.5982 1.978 0 3.5991 0.6486 4.8591 1.9457 1.2555 1.2923 1.8853 3.0849 1.8853 5.3688 0 1.8527-0.2778 3.3075-0.8336 4.3682-0.5559 1.0607-1.3666 1.8853-2.4322 2.4738-1.0607 0.5882-2.2235 0.8802-3.4786 0.8802-2.0197 0-3.6505-0.6441-4.8966-1.9364-1.2461-1.2926-1.8666-3.1547-1.8666-5.582zm2.5013 5e-3c0 1.8436 0.4031 3.2241 1.2089 4.1366 0.8108 0.9172 1.8253 1.3759 3.053 1.3759 1.2135 0 2.2235-0.4587 3.0342-1.3805 0.8059-0.9218 1.2089-2.3255 1.2089-4.2108 0-1.7788-0.4076-3.1267-1.2183-4.0394-0.8107-0.917-1.8204-1.3757-3.0248-1.3757-1.2277 0-2.2422 0.4539-3.053 1.3666-0.8058 0.9125-1.2089 2.2881-1.2089 4.1273zm11.984-7.2171h11.673v2.0288h-4.6137v12.396h-2.446v-12.396h-4.6137zm23.537 9.7555 2.5294 0.3336c-0.3937 1.4684-1.1302 2.6127-2.2051 3.4234-1.0746 0.8104-2.4457 1.2184-4.1182 1.2184-2.103 0-3.7706-0.6486-5.0028-1.9457-1.2322-1.2924-1.8482-3.1131-1.8482-5.4522 0-2.4182 0.6208-4.299 1.8669-5.633 1.2461-1.3388 2.8627-2.0058 4.8501-2.0058 1.9221 0 3.4925 0.6531 4.7109 1.9641 1.2183 1.311 1.8297 3.1547 1.8297 5.531 0 0.1437-5e-3 0.3614-0.0139 0.6485h-10.742c0.0927 1.5795 0.5374 2.7933 1.3436 3.6318 0.8014 0.8385 1.8065 1.26 3.0061 1.26 0.8941 0 1.6586-0.2364 2.2884-0.7087 0.6347-0.4725 1.135-1.2277 1.5055-2.2654zm-8.0044-3.9189h8.0322c-0.1063-1.2135-0.4167-2.1215-0.9218-2.7284-0.7736-0.9402-1.7833-1.4127-3.0201-1.4127-1.1211 0-2.0616 0.375-2.8258 1.1256-0.7597 0.7503-1.1812 1.7555-1.2645 3.0155zm-312.14 39.638v-19.901h2.6405v8.1995h10.284v-8.1995h2.6405v19.901h-2.6405v-9.3665h-10.284v9.3665zm20.072 0v-19.901h2.6404v8.1995h10.284v-8.1995h2.6404v19.901h-2.6404v-9.3665h-10.284v9.3665zm20.016-19.901h12.869v2.3349h-10.228v17.566h-2.6404zm12.98 0h2.6498l6.5177 12.234 5.6654-12.234h2.5939l-7.4534 15.481c-0.9312 1.9364-1.6954 3.2054-2.2929 3.8033-0.5976 0.5975-1.4499 0.894-2.5617 0.894-0.6763 0-1.5055-0.1576-2.4922-0.4725v-2.2513c0.7041 0.4076 1.4499 0.6114 2.2374 0.6114 0.6392 0 1.1905-0.2086 1.6585-0.6208 0.4632-0.4124 0.9774-1.3527 1.5378-2.821zm27.09 5.4757h2.446v11.002l6.7955-11.002h2.6266v14.425h-2.4458v-10.932l-6.7864 10.932h-2.6359zm15.611 0h3.7613l3.8123 11.544 4.2202-11.544h3.4929v14.425h-2.446v-11.613l-4.2478 11.613h-2.1866l-4.0161-12.169v12.169h-2.3902zm19.72 14.425v-2.7794h2.7794v2.7794zm15.166 0v-19.901h2.6405v8.1995h10.284v-8.1995h2.6404v19.901h-2.6404v-9.3665h-10.284v9.3665zm20.35 0v-2.7794h2.7794v2.7794zm15.111-19.901h2.3901v15.759l10.594-15.759h2.6082v19.901h-2.3905v-15.718l-10.566 15.718h-2.6359zm20.313 19.901v-2.7794h2.7794v2.7794zm16.528-19.901h12.424v19.901h-2.6402v-17.566h-7.1433v10.251c0 2.0846-0.0972 3.6088-0.2917 4.5768-0.1945 0.9729-0.6069 1.7232-1.2322 2.2652-0.6253 0.5374-1.4222 0.8062-2.3811 0.8062-0.5837 0-1.283-0.1205-2.0985-0.3615l0.4725-2.3346c0.4309 0.2223 0.8014 0.3334 1.1072 0.3334 0.593 0 1.0423-0.2223 1.3388-0.6715 0.2965-0.4493 0.4448-1.5055 0.4448-3.1731zm15.546 12.688c0-2.6637 0.741-4.6369 2.2281-5.9201 1.2367-1.0656 2.7516-1.5982 4.5351-1.5982 1.978 0 3.5992 0.6486 4.8592 1.9457 1.2554 1.2923 1.8853 3.085 1.8853 5.3688 0 1.8528-0.2778 3.3075-0.8337 4.3682-0.5558 1.0607-1.3666 1.8853-2.4321 2.4738-1.0607 0.5882-2.2235 0.8802-3.4787 0.8802-2.0197 0-3.6504-0.6441-4.8965-1.9364-1.2462-1.2926-1.8667-3.1546-1.8667-5.582zm2.5013 5e-3c0 1.8436 0.4031 3.2241 1.209 4.1366 0.8107 0.9173 1.8252 1.3759 3.0529 1.3759 1.2135 0 2.2235-0.4586 3.0342-1.3805 0.8059-0.9218 1.209-2.3255 1.209-4.2108 0-1.7788-0.4076-3.1266-1.2183-4.0394-0.8107-0.917-1.8204-1.3756-3.0249-1.3756-1.2277 0-2.2422 0.4538-3.0529 1.3665-0.8059 0.9125-1.209 2.2882-1.209 4.1273zm24.38-13.165 2.1679 0.0278c-0.0975 0.968-0.3152 1.6444-0.644 2.0242-0.3289 0.3799-0.7504 0.6208-1.2694 0.7319-0.5187 0.1066-1.5378 0.1622-3.0526 0.1622-2.0104 0-3.3815 0.1944-4.1134 0.5836-0.7274 0.3892-1.2554 1.01-1.5752 1.8624-0.3195 0.8569-0.4955 1.9548-0.5326 3.3026 0.6162-0.917 1.3342-1.6027 2.1586-2.0613 0.82-0.4587 1.7512-0.6854 2.7793-0.6854 1.8902 0 3.4557 0.6483 4.6973 1.9454 1.2368 1.2971 1.8576 3.0526 1.8576 5.2716 0 1.6815-0.3104 3.062-0.9358 4.1366-0.6253 1.0749-1.3665 1.9085-2.2234 2.497-0.8524 0.5882-2.0197 0.8802-3.4929 0.8802-1.7138 0-3.0433-0.3892-3.9929-1.1721-0.9496-0.783-1.677-1.7836-2.1866-3.0017-0.5049-1.2183-0.7597-3.3446-0.7597-6.3694 0-3.8032 0.644-6.3649 1.927-7.6853 1.2832-1.3201 3.2612-1.978 5.9295-1.978 1.6631 0 2.6033-0.0278 2.8304-0.0833 0.2222-0.0556 0.3659-0.1852 0.4309-0.389zm-0.0837 13.096c0-1.4961-0.3566-2.7238-1.0652-3.6827-0.7087-0.959-1.7093-1.4361-3.0019-1.4361-1.3479 0-2.3857 0.5052-3.1176 1.5194-0.7319 1.01-1.0978 2.3579-1.0978 4.0487 0 1.6676 0.4031 2.9464 1.2138 3.831 0.8059 0.8847 1.8065 1.3295 2.9877 1.3295 1.2138 0 2.1957-0.5142 2.9509-1.5381 0.7551-1.0236 1.1301-2.3808 1.1301-4.0717zm14.282 5.4709c-0.9079 0.7736-1.7835 1.3156-2.622 1.635-0.8385 0.3198-1.7371 0.4774-2.7006 0.4774-1.5843 0-2.8026-0.3847-3.655-1.1583-0.8524-0.769-1.2784-1.7555-1.2784-2.9554 0-0.7041 0.1621-1.3478 0.4816-1.9318 0.3243-0.5836 0.7458-1.0468 1.2648-1.3989 0.5233-0.352 1.1069-0.6208 1.7603-0.8013 0.4816-0.125 1.209-0.2455 2.177-0.366 1.9735-0.2316 3.4328-0.5142 4.3637-0.8385 9e-3 -0.3333 0.0139-0.5465 0.0139-0.6346 0-0.9913-0.2316-1.6906-0.6948-2.0982-0.6253-0.5514-1.5565-0.8246-2.7887-0.8246-1.1534 0-2.0058 0.2038-2.5523 0.6066-0.5514 0.4031-0.9545 1.1165-1.2184 2.1449l-2.3901-0.3336c0.2177-1.0236 0.5743-1.853 1.0746-2.4829 0.5003-0.6301 1.2229-1.1117 2.1679-1.4544 0.9403-0.3382 2.0381-0.5097 3.2797-0.5097 1.2322 0 2.2374 0.1437 3.011 0.4354 0.769 0.292 1.3388 0.6531 1.7002 1.0933 0.3611 0.44 0.616 0.9959 0.7642 1.6677 0.0788 0.4169 0.1205 1.1673 0.1205 2.2467v3.2426c0 2.2651 0.051 3.6966 0.1528 4.3032 0.0972 0.6069 0.301 1.186 0.5975 1.7419h-2.5568c-0.2458-0.5142-0.4031-1.1163-0.4726-1.8065zm-0.1947-5.4198c-0.8892 0.3611-2.2235 0.6669-4.0023 0.917-1.0099 0.1437-1.7231 0.3058-2.1401 0.4864-0.417 0.1808-0.7364 0.4447-0.9635 0.7875-0.2271 0.3475-0.3427 0.7319-0.3427 1.1582 0 0.6437 0.2455 1.1857 0.741 1.6166 0.4957 0.4309 1.2183 0.6486 2.1679 0.6486 0.9405 0 1.779-0.2039 2.5155-0.616 0.7319-0.4079 1.2739-0.9683 1.6166-1.677 0.2642-0.5513 0.3937-1.362 0.3937-2.4321zm4.7021-7.1986h2.4457v2.7238c0 1.1764 0.0695 2.0287 0.2132 2.5568 0.1389 0.5281 0.4771 0.9913 1.0145 1.385 0.5326 0.3938 1.2045 0.5885 2.0149 0.5885 0.9266 0 2.1217-0.2455 3.5949-0.7319v-6.5222h2.4457v14.425h-2.4457v-5.8229c-1.5055 0.4725-2.9138 0.7089-4.2202 0.7089-1.0979 0-2.0659-0.278-2.9044-0.8339s-1.4083-1.2368-1.7093-2.0429c-0.3011-0.8059-0.4493-1.6906-0.4493-2.6589zm25.237 9.7554 2.5294 0.3336c-0.3937 1.4684-1.1302 2.6127-2.2051 3.4234-1.0746 0.8105-2.4457 1.2184-4.1181 1.2184-2.1031 0-3.7707-0.6486-5.0029-1.9457-1.2322-1.2923-1.8482-3.113-1.8482-5.4522 0-2.4182 0.6208-4.299 1.8669-5.633 1.2461-1.3388 2.8627-2.0058 4.8501-2.0058 1.9222 0 3.4925 0.6531 4.7109 1.9641 1.2183 1.3111 1.8297 3.1547 1.8297 5.531 0 0.1437-5e-3 0.3614-0.0139 0.6486h-10.742c0.0927 1.5794 0.5374 2.7932 1.3436 3.6317 0.8014 0.8385 1.8065 1.26 3.0062 1.26 0.894 0 1.6585-0.2364 2.2884-0.7086 0.6346-0.4726 1.135-1.2277 1.5054-2.2655zm-8.0044-3.9189h8.0322c-0.1063-1.2135-0.4167-2.1214-0.9218-2.7283-0.7736-0.9403-1.7833-1.4128-3.02-1.4128-1.1211 0-2.0617 0.375-2.8259 1.1256-0.7597 0.7503-1.1812 1.7555-1.2645 3.0155zm13.624-5.8365h5.6284c1.3805 0 2.4086 0.1156 3.085 0.3472 0.6718 0.2316 1.2509 0.6531 1.7325 1.2694 0.4864 0.6208 0.7274 1.3572 0.7274 2.2189 0 0.6903-0.1437 1.2923-0.4263 1.802-0.2872 0.5139-0.7132 0.9448-1.2878 1.2878 0.6763 0.2268 1.237 0.6483 1.6863 1.2691 0.4448 0.6162 0.667 1.3527 0.667 2.2005-0.0879 1.3663-0.5791 2.3808-1.4638 3.0387-0.8847 0.6625-2.1725 0.9913-3.8588 0.9913h-6.4899zm2.446 6.0868h2.594c1.0332 0 1.7464-0.0555 2.1311-0.1621 0.3889-0.1112 0.7364-0.3291 1.042-0.6625 0.3058-0.3288 0.4586-0.7274 0.4586-1.1905 0-0.7643-0.2687-1.2924-0.8013-1.5937-0.5375-0.301-1.4545-0.4493-2.7516-0.4493h-2.6728zm0 6.3369h3.2102c1.3805 0 2.3301-0.1622 2.8443-0.4816 0.5142-0.3243 0.7826-0.8757 0.8104-1.6677 0-0.4586-0.1479-0.8895-0.4444-1.2832-0.3014-0.3937-0.6903-0.6438-1.1676-0.7458-0.4771-0.1066-1.2459-0.1576-2.3021-0.1576h-2.9508zm21.434-3.2797 2.3901 0.3336c-0.2639 1.6444-0.9311 2.9276-2.0103 3.8588-1.0794 0.9309-2.4089 1.3944-3.9793 1.3944-1.9686 0-3.5529-0.6441-4.748-1.9318-1.1999-1.2878-1.7974-3.1315-1.7974-5.531 0-1.5565 0.2593-2.9137 0.7735-4.081 0.5142-1.1628 1.2972-2.0384 2.3534-2.6173 1.0513-0.5836 2.1957-0.8756 3.437-0.8756 1.5613 0 2.8442 0.3937 3.8355 1.1857 0.9961 0.7923 1.6353 1.918 1.9134 3.3724l-2.3627 0.3614c-0.2267-0.968-0.6253-1.6954-1.2044-2.1863-0.5743-0.4864-1.2691-0.7319-2.0843-0.7319-1.2322 0-2.2329 0.4399-3.0065 1.3201-0.769 0.8847-1.1534 2.2745-1.1534 4.1831 0 1.9363 0.3705 3.3397 1.1118 4.2154 0.7458 0.8753 1.7138 1.3155 2.9044 1.3155 0.9635 0 1.7648-0.292 2.404-0.8801 0.6441-0.5837 1.0517-1.4871 1.2232-2.7054zm4.447-9.144h2.446v6.2257c0.7781 0 1.3249-0.1482 1.6398-0.4493 0.3104-0.2965 0.7691-1.1628 1.3805-2.6033 0.4816-1.1396 0.8708-1.8902 1.1673-2.2513 0.301-0.3614 0.6437-0.6069 1.0329-0.7319 0.3938-0.1253 1.0191-0.1899 1.876-0.1899h0.4913v2.0148l-0.6812-0.0138c-0.6438 0-1.0559 0.0972-1.2368 0.2871-0.1899 0.1993-0.4816 0.7923-0.8708 1.779-0.3705 0.9448-0.7086 1.5982-1.019 1.9593-0.3059 0.3614-0.783 0.6903-1.427 0.9913 1.0517 0.2826 2.0894 1.26 3.1085 2.937l2.6821 4.4702h-2.6869l-2.645-4.4563c-0.5327-0.9034-0.9958-1.4962-1.3896-1.7833-0.3985-0.2874-0.8711-0.4309-1.4221-0.4309v6.6705h-2.446zm11.581 7.2124c0-2.6637 0.741-4.6369 2.228-5.9201 1.2368-1.0656 2.7516-1.5982 4.5352-1.5982 1.978 0 3.5991 0.6486 4.8591 1.9457 1.2555 1.2923 1.8854 3.085 1.8854 5.3688 0 1.8528-0.2778 3.3075-0.8337 4.3682s-1.3666 1.8853-2.4321 2.4738c-1.0608 0.5882-2.2235 0.8802-3.4787 0.8802-2.0197 0-3.6505-0.6441-4.8966-1.9364-1.2461-1.2926-1.8666-3.1546-1.8666-5.582zm2.5013 5e-3c0 1.8436 0.4031 3.2241 1.209 4.1366 0.8107 0.9173 1.8252 1.3759 3.0529 1.3759 1.2135 0 2.2235-0.4586 3.0342-1.3805 0.8059-0.9218 1.209-2.3255 1.209-4.2108 0-1.7788-0.4077-3.1266-1.2184-4.0394-0.8107-0.917-1.8204-1.3756-3.0248-1.3756-1.2277 0-2.2422 0.4538-3.0529 1.3665-0.8059 0.9125-1.209 2.2882-1.209 4.1273zm13.874-7.217h8.3106v2.0287h-5.8646v12.396h-2.446zm8.6071 7.2124c0-2.6637 0.741-4.6369 2.228-5.9201 1.2368-1.0656 2.7516-1.5982 4.5352-1.5982 1.978 0 3.5991 0.6486 4.8591 1.9457 1.2555 1.2923 1.8854 3.085 1.8854 5.3688 0 1.8528-0.2778 3.3075-0.8337 4.3682s-1.3666 1.8853-2.4321 2.4738c-1.0608 0.5882-2.2235 0.8802-3.4787 0.8802-2.0197 0-3.6505-0.6441-4.8966-1.9364-1.2461-1.2926-1.8666-3.1546-1.8666-5.582zm2.5013 5e-3c0 1.8436 0.4031 3.2241 1.209 4.1366 0.8107 0.9173 1.8252 1.3759 3.0529 1.3759 1.2135 0 2.2235-0.4586 3.0342-1.3805 0.8059-0.9218 1.209-2.3255 1.209-4.2108 0-1.7788-0.4077-3.1266-1.2184-4.0394-0.8107-0.917-1.8204-1.3756-3.0248-1.3756-1.2277 0-2.2422 0.4538-3.0529 1.3665-0.8059 0.9125-1.209 2.2882-1.209 4.1273z"/>
  </g>
  <path d="m267.44 162.5-113.45 46.128 2.2206 1.0431 0.3147-0.3092 5.076 0.045-1.9191 1.8854 9.688 4.5244 6.3964-6.2839 5.0763 0.0454-8.0005 7.8599 9.6879 4.5241 12.478-12.258 5.076 0.0454-14.082 13.834 9.6883 4.5241 18.56-18.233 4.9249 0.0439z" fill="#4996c5"/>
 </g>
</svg>
