<svg width="30" height="30" viewBox="0 0 30 30" fill="none" xmlns="http://www.w3.org/2000/svg">
<path fill-rule="evenodd" clip-rule="evenodd" d="M15 0C6.71573 0 0 6.71573 0 15C0 23.2843 6.71573 30 15 30C23.2843 30 30 23.2843 30 15C30 6.71573 23.2843 0 15 0ZM11.7021 7.04833C12.5554 7.0095 12.8281 7 15.0008 7H14.9983C17.1716 7 17.4433 7.0095 18.2966 7.04833C19.1483 7.08733 19.73 7.22216 20.24 7.42C20.7667 7.62417 21.2117 7.8975 21.6567 8.34251C22.1017 8.78718 22.375 9.23352 22.58 9.75969C22.7767 10.2684 22.9117 10.8497 22.9517 11.7014C22.99 12.5547 23 12.8274 23 15.0001C23 17.1728 22.99 17.4448 22.9517 18.2981C22.9117 19.1495 22.7767 19.731 22.58 20.2398C22.375 20.7658 22.1017 21.2121 21.6567 21.6568C21.2122 22.1018 20.7665 22.3758 20.2405 22.5802C19.7315 22.778 19.1495 22.9128 18.2978 22.9518C17.4445 22.9907 17.1726 23.0002 14.9998 23.0002C12.8272 23.0002 12.5547 22.9907 11.7014 22.9518C10.8499 22.9128 10.2684 22.778 9.75938 22.5802C9.23354 22.3758 8.7872 22.1018 8.3427 21.6568C7.89786 21.2121 7.62452 20.7658 7.42002 20.2396C7.22235 19.731 7.08752 19.1496 7.04835 18.2979C7.00969 17.4446 7.00002 17.1728 7.00002 15.0001C7.00002 12.8274 7.01002 12.5546 7.04819 11.7012C7.08652 10.8499 7.22152 10.2684 7.41986 9.75952C7.62486 9.23352 7.89819 8.78718 8.3432 8.34251C8.78787 7.89767 9.23421 7.62434 9.76038 7.42C10.2691 7.22216 10.8504 7.08733 11.7021 7.04833Z" fill="white"/>
<path fill-rule="evenodd" clip-rule="evenodd" d="M14.283 8.4417C14.4224 8.44148 14.5723 8.44155 14.7341 8.44162L15.0007 8.4417C17.1367 8.4417 17.3899 8.44936 18.2334 8.4877C19.0134 8.52336 19.4368 8.6537 19.7188 8.7632C20.0921 8.9082 20.3583 9.08154 20.6381 9.36154C20.9181 9.64154 21.0915 9.90821 21.2368 10.2815C21.3463 10.5632 21.4768 10.9866 21.5123 11.7666C21.5506 12.6099 21.559 12.8632 21.559 14.9983C21.559 17.1333 21.5506 17.3866 21.5123 18.23C21.4766 19.01 21.3463 19.4333 21.2368 19.715C21.0918 20.0883 20.9181 20.3542 20.6381 20.634C20.3581 20.914 20.0923 21.0873 19.7188 21.2323C19.4371 21.3423 19.0134 21.4723 18.2334 21.508C17.3901 21.5463 17.1367 21.5547 15.0007 21.5547C12.8645 21.5547 12.6114 21.5463 11.768 21.508C10.988 21.472 10.5647 21.3417 10.2825 21.2322C9.90917 21.0872 9.6425 20.9138 9.3625 20.6338C9.0825 20.3538 8.90916 20.0878 8.76383 19.7143C8.65432 19.4326 8.52382 19.0093 8.48832 18.2293C8.44999 17.386 8.44232 17.1326 8.44232 14.9963C8.44232 12.8599 8.44999 12.6079 8.48832 11.7646C8.52399 10.9846 8.65432 10.5612 8.76383 10.2792C8.90883 9.90588 9.0825 9.63921 9.3625 9.35921C9.6425 9.0792 9.90917 8.90587 10.2825 8.76053C10.5645 8.65053 10.988 8.52053 11.768 8.4847C12.506 8.45136 12.792 8.44136 14.283 8.4397V8.4417ZM19.2711 9.77004C18.7411 9.77004 18.3111 10.1995 18.3111 10.7297C18.3111 11.2597 18.7411 11.6897 19.2711 11.6897C19.8011 11.6897 20.2311 11.2597 20.2311 10.7297C20.2311 10.1997 19.8011 9.76971 19.2711 9.76971V9.77004ZM10.8923 15.0001C10.8923 12.7313 12.7318 10.8918 15.0006 10.8917C17.2694 10.8917 19.1084 12.7312 19.1084 15.0001C19.1084 17.269 17.2696 19.1076 15.0007 19.1076C12.7319 19.1076 10.8923 17.269 10.8923 15.0001Z" fill="white"/>
<path d="M15.0007 12.3334C16.4734 12.3334 17.6674 13.5272 17.6674 15.0001C17.6674 16.4727 16.4734 17.6668 15.0007 17.6668C13.5279 17.6668 12.334 16.4727 12.334 15.0001C12.334 13.5272 13.5279 12.3334 15.0007 12.3334Z" fill="white"/>
</svg>
