<svg width="25" height="25" viewBox="0 0 25 25" fill="none" xmlns="http://www.w3.org/2000/svg">
<path d="M18.4399 14.3112V16.7684C18.4408 16.9965 18.3941 17.2222 18.3027 17.4312C18.2113 17.6403 18.0773 17.8279 17.9092 17.9821C17.7411 18.1363 17.5427 18.2538 17.3266 18.3268C17.1105 18.3999 16.8815 18.427 16.6543 18.4065C14.1339 18.1326 11.7129 17.2714 9.58575 15.892C7.60674 14.6344 5.92889 12.9565 4.67134 10.9776C3.28709 8.84076 2.42565 6.40794 2.15679 3.8762C2.13633 3.6497 2.16325 3.42142 2.23583 3.20589C2.30843 2.99036 2.4251 2.79231 2.57843 2.62435C2.73175 2.45639 2.91837 2.32218 3.1264 2.2303C3.33444 2.13841 3.55932 2.09085 3.78674 2.09062H6.24395C6.64145 2.08672 7.02681 2.22747 7.3282 2.48668C7.62959 2.74587 7.82646 3.10582 7.88209 3.49942C7.9858 4.28579 8.17814 5.05789 8.45544 5.80101C8.56564 6.09418 8.58949 6.41279 8.52416 6.7191C8.45884 7.02539 8.30707 7.30656 8.08685 7.52925L7.04664 8.56946C8.21263 10.62 9.91051 12.3179 11.9611 13.4839L13.0013 12.4437C13.224 12.2234 13.5052 12.0717 13.8114 12.0064C14.1177 11.941 14.4364 11.9649 14.7295 12.0751C15.4726 12.3524 16.2447 12.5448 17.0311 12.6485C17.429 12.7046 17.7923 12.905 18.0521 13.2116C18.3119 13.5181 18.4499 13.9095 18.4399 14.3112Z" stroke="#61CCFF" stroke-width="2" stroke-linecap="round" stroke-linejoin="round"/>
</svg>
