<svg width="20" height="20" viewBox="0 0 20 20" fill="none" xmlns="http://www.w3.org/2000/svg">
<path fill-rule="evenodd" clip-rule="evenodd" d="M0.833332 1.66659C0.833332 1.20635 1.20643 0.833252 1.66667 0.833252H10C10.221 0.833252 10.433 0.921049 10.5893 1.07733L17.7493 8.23741C18.215 8.70582 18.4763 9.33945 18.4763 9.99992C18.4763 10.6604 18.215 11.294 17.7493 11.7624L17.1583 11.1749L17.7476 11.7642L11.7729 17.7388C11.7728 17.739 11.773 17.7387 11.7729 17.7388C11.5408 17.9711 11.2649 18.1557 10.9615 18.2815C10.658 18.4073 10.3327 18.4721 10.0042 18.4721C9.67563 18.4721 9.35031 18.4073 9.04681 18.2815C8.74339 18.1557 8.46774 17.9714 8.23559 17.739C8.23553 17.739 8.23565 17.7391 8.23559 17.739L1.07775 10.5895C0.921263 10.4332 0.833332 10.2211 0.833332 9.99992V1.66659ZM16.5673 10.5874C16.5676 10.5872 16.5678 10.5869 16.5681 10.5866C16.7228 10.4306 16.8097 10.2197 16.8097 9.99992C16.8097 9.78012 16.7228 9.56925 16.5681 9.41319C16.5678 9.41293 16.5676 9.41267 16.5673 9.41242L9.65482 2.49992H2.5V9.65446L9.41391 16.5603L9.41458 16.561C9.49198 16.6385 9.58388 16.6999 9.68505 16.7419C9.78621 16.7838 9.89465 16.8054 10.0042 16.8054C10.1137 16.8054 10.2221 16.7838 10.3233 16.7419C10.4244 16.6999 10.5164 16.6385 10.5937 16.561L16.5673 10.5874Z" fill="#C4C4C4"/>
</svg>
